Generating Time Series
…
This ensures the imaginary parts cancel out in the inverse transform, yielding a real-valued time series. The first coefficient, \(x(0)\), represents the mean of the signal.

5.2 FA of synthetic time series

We begin with a synthetic time series dataset to illustrate Fourier analysis.

5.2.1 Loading and visualizing the data

Code

fpath_ts2 <- glue("{data_dir}/synthetic_TS_02.tsv")
df_ts2 <- read_tsv(fpath_ts2)
df_ts2

# A tibble: 1,008 × 31
    year day        date_no_year   mon   sea    tr    yd      noi     y noi_cnst
   <dbl> <date>     <chr>        <dbl> <dbl> <dbl> <dbl>    <dbl> <dbl>    <dbl>
 1  2023 2023-01-01 0-01-01          1 -2.20  5.00  2.80  0.108    2.91       -1
 2  2023 2023-01-02 0-01-02          1 -2.14  5.00  2.86 -0.00275  2.86        1
 3  2023 2023-01-03 0-01-03          1 -2.08  5.00  2.92 -0.780    2.14       -1
 4  2023 2023-01-04 0-01-04          1 -2.03  5.01  2.98  1.37     4.35       -1
 5  2023 2023-01-05 0-01-05          1 -1.98  5.01  3.03 -1.42     1.61        0
 6  2023 2023-01-06 0-01-06          1 -1.93  5.01  3.08  1.32     4.40       -1
 7  2023 2023-01-07 0-01-07          1 -1.88  5.01  3.13 -0.920    2.21        2
 8  2023 2023-01-08 0-01-08          1 -1.84  5.01  3.17  0.00859  3.18       -2
 9  2023 2023-01-09 0-01-09          1 -1.80  5.01  3.22 -0.155    3.06        1
10  2023 2023-01-10 0-01-10          1 -1.76  5.01  3.26  0.904    4.16       -1
# ℹ 998 more rows
# ℹ 21 more variables: y_1 <dbl>, lam <dbl>, noi_prop <dbl>, y_2 <dbl>,
#   try_lm <dbl>, try_lo <dbl>, tr_lm <dbl>, tr_lo_1 <dbl>, tr_lo_2 <dbl>,
#   y_notr <dbl>, sea_lo <dbl>, y_noi <dbl>, y_det <dbl>, eps_mul <dbl>,
#   log_y <dbl>, log_det <dbl>, log_eps <dbl>, y_log <dbl>, tr_log <dbl>,
#   sea_log <dbl>, eps_log <dbl>
…
We use the Fast Fourier Transform (FFT) to compute the Fourier coefficients, their magnitudes, and phases:

Code

df_ts2 %<>%
  mutate(fft      = fft(y_2),
         freq     = 0:(nrow(df_ts2)-1) * 2 * pi / 365,
         freq_mag = Mod(fft) / nrow(df_ts2),
         freq_pha = Arg(fft))

df_ts2 %>%
  select(day, y_2, fft, freq, freq_mag, freq_pha)

# A tibble: 1,008 × 6
   day          y_2 fft                     freq freq_mag freq_pha
   <date>     <dbl> <cpl>                  <dbl>    <dbl>    <dbl>
 1 2023-01-01  2.68 5784.041602+  0.0000i 0         5.74     0    
 2 2023-01-02  1.72 -279.085337+135.6503i 0.0172    0.308    2.69 
 3 2023-01-03  3.75 -412.705801+ 49.3987i 0.0344    0.412    3.02 
 4 2023-01-04  3.79  353.656316+266.1060i 0.0516    0.439    0.645
 5 2023-01-05  4.82    6.137246+115.7878i 0.0689    0.115    1.52 
 6 2023-01-06  1.85 -345.788543+447.4623i 0.0861    0.561    2.23 
 7 2023-01-07  2.88  116.566775-199.2687i 0.103     0.229   -1.04 
 8 2023-01-08  2.90  -29.909432-188.2257i 0.120     0.189   -1.73 
 9 2023-01-09  2.93   87.171826+656.2244i 0.138     0.657    1.44 
10 2023-01-10  1.95  -36.504022-205.5806i 0.155     0.207   -1.75 
# ℹ 998 more rows
…
Verify that the recovered signal is real (imaginary parts are negligible):

Code

df_ts2 %>% 
  select(y_2, y_hi) %>% 
  mutate(im_hi = Im(y_hi)) %>% 
  count(im_hi)

# A tibble: 956 × 2
       im_hi     n
       <dbl> <int>
 1 -3.27e-12     1
 2 -2.95e-12     1
 3 -2.90e-12     1
 4 -2.77e-12     1
 5 -2.76e-12     1
 6 -2.71e-12     1
 7 -2.70e-12     1
 8 -2.68e-12     1
 9 -2.51e-12     1
10 -2.47e-12     1
# ℹ 946 more rows
…
Code

df_ts2 %<>%
  mutate(fft_hi_detrended = if_else(freq_mag_detrended > thresh_mag, fft_detrended, 0),
         pha_hi_detrended = if_else(freq_mag_detrended > thresh_mag, freq_pha_detrended, 0),
         y_hi_detrended = fft(fft_hi_detrended, inverse = TRUE))

# Verify the recovered signal is real
df_ts2 %>%
  select(y_detrended, y_hi_detrended) %>%
  mutate(im_hi_detrended = Im(y_hi_detrended)) %>%
  count(im_hi_detrended)

# A tibble: 951 × 2
   im_hi_detrended     n
             <dbl> <int>
 1       -3.42e-12     1
 2       -3.27e-12     1
 3       -3.23e-12     1
 4       -3.09e-12     1
 5       -3.07e-12     1
 6       -3.04e-12     1
 7       -3.00e-12     1
 8       -2.90e-12     1
 9       -2.80e-12     1
10       -2.79e-12     1
# ℹ 941 more rows
…
For Python users, the same ideas are available in statsmodels.tsa.seasonal.STL or via feature-extraction packages such as tsfresh.

6.1 Univariate time series

6.1.1 Load synthetic data

Code

fpath_ts2 <- glue("{data_dir}/synthetic_TS_02.tsv")
df_ts2    <- read_tsv(fpath_ts2)

df_ts2

# A tibble: 1,008 × 31
    year day        date_no_year   mon   sea    tr    yd      noi     y noi_cnst
   <dbl> <date>     <chr>        <dbl> <dbl> <dbl> <dbl>    <dbl> <dbl>    <dbl>
 1  2023 2023-01-01 0-01-01          1 -2.20  5.00  2.80  0.108    2.91       -1
 2  2023 2023-01-02 0-01-02          1 -2.14  5.00  2.86 -0.00275  2.86        1
 3  2023 2023-01-03 0-01-03          1 -2.08  5.00  2.92 -0.780    2.14       -1
 4  2023 2023-01-04 0-01-04          1 -2.03  5.01  2.98  1.37     4.35       -1
 5  2023 2023-01-05 0-01-05          1 -1.98  5.01  3.03 -1.42     1.61        0
 6  2023 2023-01-06 0-01-06          1 -1.93  5.01  3.08  1.32     4.40       -1
 7  2023 2023-01-07 0-01-07          1 -1.88  5.01  3.13 -0.920    2.21        2
 8  2023 2023-01-08 0-01-08          1 -1.84  5.01  3.17  0.00859  3.18       -2
 9  2023 2023-01-09 0-01-09          1 -1.80  5.01  3.22 -0.155    3.06        1
10  2023 2023-01-10 0-01-10          1 -1.76  5.01  3.26  0.904    4.16       -1
# ℹ 998 more rows
# ℹ 21 more variables: y_1 <dbl>, lam <dbl>, noi_prop <dbl>, y_2 <dbl>,
#   try_lm <dbl>, try_lo <dbl>, tr_lm <dbl>, tr_lo_1 <dbl>, tr_lo_2 <dbl>,
#   y_notr <dbl>, sea_lo <dbl>, y_noi <dbl>, y_det <dbl>, eps_mul <dbl>,
#   log_y <dbl>, log_det <dbl>, log_eps <dbl>, y_log <dbl>, tr_log <dbl>,
#   sea_log <dbl>, eps_log <dbl>

6.1.2 Load Walmart (real) data

Code

fpath_wws <- glue("{data_dir}/Walmart/train.csv")
df_wws <- read_csv(fpath_wws) %>%
  rename_with(tolower) %>%
  rename(is_holiday = isholiday,
         weekly_sales = weekly_sales)

df_wws

# A tibble: 421,570 × 5
   store  dept date       weekly_sales is_holiday
   <dbl> <dbl> <date>            <dbl> <lgl>     
 1     1     1 2010-02-05       24924. FALSE     
 2     1     1 2010-02-12       46039. TRUE      
 3     1     1 2010-02-19       41596. FALSE     
 4     1     1 2010-02-26       19404. FALSE     
 5     1     1 2010-03-05       21828. FALSE     
 6     1     1 2010-03-12       21043. FALSE     
 7     1     1 2010-03-19       22137. FALSE     
 8     1     1 2010-03-26       26229. FALSE     
 9     1     1 2010-04-02       57258. FALSE     
10     1     1 2010-04-09       42961. FALSE     
# ℹ 421,560 more rows
…
6.4 Multiple time series

6.4.1 Detect gaps

Tools from tsibble for detecting gaps:

Code

ts_wws %>% has_gaps

# A tibble: 3,331 × 3
   store  dept .gaps
   <dbl> <dbl> <lgl>
 1     1     1 FALSE
 2     1     2 FALSE
 3     1     3 FALSE
 4     1     4 FALSE
 5     1     5 FALSE
 6     1     6 FALSE
 7     1     7 FALSE
 8     1     8 FALSE
 9     1     9 FALSE
10     1    10 FALSE
# ℹ 3,321 more rows

Code

ts_wws %>% has_gaps %>% filter(.gaps == TRUE)

# A tibble: 605 × 3
   store  dept .gaps
   <dbl> <dbl> <lgl>
 1     1    18 TRUE 
 2     1    45 TRUE 
 3     1    47 TRUE 
 4     1    48 TRUE 
 5     1    51 TRUE 
 6     1    54 TRUE 
 7     1    77 TRUE 
 8     1    78 TRUE 
 9     1    99 TRUE 
10     2    18 TRUE 
# ℹ 595 more rows

Code

ts_wws %>% count_gaps()

# A tibble: 5,447 × 5
   store  dept    .from      .to    .n
   <dbl> <dbl>   <week>   <week> <int>
 1     1    18 2010 W17 2010 W18     2
 2     1    18 2010 W20 2010 W21     2
 3     1    18 2010 W24 2010 W32     9
 4     1    18 2011 W22 2011 W22     1
 5     1    18 2011 W25 2011 W25     1
 6     1    18 2011 W27 2011 W27     1
 7     1    18 2011 W29 2011 W33     5
 8     1    18 2012 W20 2012 W20     1
 9     1    18 2012 W24 2012 W28     5
10     1    18 2012 W30 2012 W32     3
# ℹ 5,437 more rows

Code

ts_wws %>%
  filter(store == 1, dept == 18) %>%
  print(n = 20)

# A tsibble: 113 x 6 [1W]
# Key:       store, dept [1]
   store  dept date       weekly_sales is_holiday    yweek
   <dbl> <dbl> <date>            <dbl> <lgl>        <week>
 1     1    18 2010-02-05      4730.   FALSE      2010 W05
 2     1    18 2010-02-12     19006.   TRUE       2010 W06
 3     1    18 2010-02-19     17624.   FALSE      2010 W07
 4     1    18 2010-02-26       545.   FALSE      2010 W08
 5     1    18 2010-03-05       635.   FALSE      2010 W09
 6     1    18 2010-03-12      1275.   FALSE      2010 W10
 7     1    18 2010-03-19      2303.   FALSE      2010 W11
 8     1    18 2010-03-26      4037.   FALSE      2010 W12
 9     1    18 2010-04-02     17916.   FALSE      2010 W13
10     1    18 2010-04-09      8668.   FALSE      2010 W14
11     1    18 2010-04-16       585.   FALSE      2010 W15
12     1    18 2010-04-23        65.2  FALSE      2010 W16
13     1    18 2010-05-14         0.5  FALSE      2010 W19
14     1    18 2010-06-04         4.1  FALSE      2010 W22
15     1    18 2010-06-11         0.15 FALSE      2010 W23
16     1    18 2010-08-20         1    FALSE      2010 W33
17     1    18 2010-08-27        23    FALSE      2010 W34
18     1    18 2010-09-03       132    FALSE      2010 W35
19     1    18 2010-09-10       246    TRUE       2010 W36
20     1    18 2010-09-17      1584.   FALSE      2010 W37
# ℹ 93 more rows

Code

ts_wws %>% scan_gaps()

# A tsibble: 27,667 x 3 [1W]
# Key:       store, dept [605]
   store  dept    yweek
   <dbl> <dbl>   <week>
 1     1    18 2010 W17
 2     1    18 2010 W18
 3     1    18 2010 W20
 4     1    18 2010 W21
 5     1    18 2010 W24
 6     1    18 2010 W25
 7     1    18 2010 W26
 8     1    18 2010 W27
 9     1    18 2010 W28
10     1    18 2010 W29
# ℹ 27,657 more rows

6.4.2 Fill gaps (keep original keys)

Code

ts_wws %>%  fill_gaps(.full = TRUE)

# A tsibble: 476,333 x 6 [1W]
# Key:       store, dept [3,331]
   store  dept date       weekly_sales is_holiday    yweek
   <dbl> <dbl> <date>            <dbl> <lgl>        <week>
 1     1     1 2010-02-05       24924. FALSE      2010 W05
 2     1     1 2010-02-12       46039. TRUE       2010 W06
 3     1     1 2010-02-19       41596. FALSE      2010 W07
 4     1     1 2010-02-26       19404. FALSE      2010 W08
 5     1     1 2010-03-05       21828. FALSE      2010 W09
 6     1     1 2010-03-12       21043. FALSE      2010 W10
 7     1     1 2010-03-19       22137. FALSE      2010 W11
 8     1     1 2010-03-26       26229. FALSE      2010 W12
 9     1     1 2010-04-02       57258. FALSE      2010 W13
10     1     1 2010-04-09       42961. FALSE      2010 W14
# ℹ 476,323 more rows

Code

ts_wws %>%  fill_gaps(.full = FALSE)

# A tsibble: 449,237 x 6 [1W]
# Key:       store, dept [3,331]
   store  dept date       weekly_sales is_holiday    yweek
   <dbl> <dbl> <date>            <dbl> <lgl>        <week>
 1     1     1 2010-02-05       24924. FALSE      2010 W05
 2     1     1 2010-02-12       46039. TRUE       2010 W06
 3     1     1 2010-02-19       41596. FALSE      2010 W07
 4     1     1 2010-02-26       19404. FALSE      2010 W08
 5     1     1 2010-03-05       21828. FALSE      2010 W09
 6     1     1 2010-03-12       21043. FALSE      2010 W10
 7     1     1 2010-03-19       22137. FALSE      2010 W11
 8     1     1 2010-03-26       26229. FALSE      2010 W12
 9     1     1 2010-04-02       57258. FALSE      2010 W13
10     1     1 2010-04-09       42961. FALSE      2010 W14
# ℹ 449,227 more rows

Code

ts_wws %<>%  fill_gaps(.full = FALSE)

ts_wws %>% group_by(store) %>% reframe(n_na = sum(is.na(weekly_sales)))

# A tibble: 45 × 2
   store  n_na
   <dbl> <int>
 1     1   414
 2     2   436
 3     3   499
 4     4   450
 5     5   643
 6     6   420
 7     7   565
 8     8   514
 9     9   658
10    10   388
# ℹ 35 more rows

Code

ts_wws %>% group_by(dept) %>% reframe(n_na = sum(is.na(weekly_sales)))

# A tibble: 81 × 2
    dept  n_na
   <dbl> <int>
 1     1     0
 2     2     0
 3     3     0
 4     4     0
 5     5    88
 6     6   193
 7     7     0
 8     8     0
 9     9    67
10    10     0
# ℹ 71 more rows

Code

df_na_wws <-
  ts_wws %>% 
  group_by_key() %>% 
  reframe(n_na = sum(is.na(weekly_sales)))
df_na_wws

# A tibble: 3,331 × 3
   store  dept  n_na
   <dbl> <dbl> <int>
 1     1     1     0
 2     1     2     0
 3     1     3     0
 4     1     4     0
 5     1     5     0
 6     1     6     0
 7     1     7     0
 8     1     8     0
 9     1     9     0
10     1    10     0
# ℹ 3,321 more rows
…
Let’s check all the stores for dept 3:

Code

ts_wws_2 %>%
  filter(dept == 3) %>%
  group_by(store) %>%
  reframe(n_na = sum(is.na(weekly_sales))) %>%
  filter(n_na == 0)

# A tibble: 45 × 2
   store  n_na
   <dbl> <int>
 1     1     0
 2     2     0
 3     3     0
 4     4     0
 5     5     0
 6     6     0
 7     7     0
 8     8     0
 9     9     0
10    10     0
# ℹ 35 more rows
…
ts_ts2 %>% features(.var = y_2, features = feature_set(tags = "stl"))

# A tibble: 1 × 9
  trend_strength seasonal_strength_week seasonal_peak_week seasonal_trough_week
           <dbl>                  <dbl>              <dbl>                <dbl>
1          0.783                  0.199                  5                    3
# ℹ 5 more variables: spikiness <dbl>, linearity <dbl>, curvature <dbl>,
#   stl_e_acf1 <dbl>, stl_e_acf10 <dbl>

Code

ts_wws %>% features(.var = weekly_sales, features = feat_stl)

# A tibble: 3,331 × 11
   store  dept trend_strength seasonal_strength_year seasonal_peak_year
   <dbl> <dbl>          <dbl>                  <dbl>              <dbl>
 1     1     1       0.000670                  0.786                 47
 2     1     2       0.191                     0.868                 47
 3     1     3       0.0614                    0.927                 30
 4     1     4       0.458                     0.881                 47
 5     1     5       0.0370                    0.907                 43
 6     1     6       0.243                     0.925                 47
 7     1     7       0.127                     0.954                 47
 8     1     8       0.756                     0.806                 47
 9     1     9       0.450                     0.928                 40
10     1    10       0.233                     0.712                  5
# ℹ 3,321 more rows
# ℹ 6 more variables: seasonal_trough_year <dbl>, spikiness <dbl>,
#   linearity <dbl>, curvature <dbl>, stl_e_acf1 <dbl>, stl_e_acf10 <dbl>

Let’s focus on trend strength for example (see a description in the chapter STL features). Let’s re-arrange the data frame with the higher trend strength on top.

Code

ts_wws_3 %>% features(.var = weekly_sales, features = feat_stl) %>% arrange(desc(trend_strength))

# A tibble: 81 × 10
    dept trend_strength seasonal_strength_year seasonal_peak_year
   <dbl>          <dbl>                  <dbl>              <dbl>
 1    54          0.932                  0.667                 47
 2    87          0.921                  0.888                 47
 3    51          0.868                  0.533                 47
 4    92          0.813                  0.939                 47
 5    48          0.784                  0.830                 47
 6    90          0.773                  0.896                 47
 7    96          0.760                  0.939                 23
 8    30          0.757                  0.950                 18
 9    28          0.740                  0.979                 47
10    85          0.690                  0.976                 47
# ℹ 71 more rows
# ℹ 6 more variables: seasonal_trough_year <dbl>, spikiness <dbl>,
#   linearity <dbl>, curvature <dbl>, stl_e_acf1 <dbl>, stl_e_acf10 <dbl>
…
