F4SC. Optimization of TES parameters
…
Rows: 1009 Columns: 5
── Column specification ────────────────────────────────────────────────────────
Delimiter: "\t"
chr  (1): day_noy
dbl  (3): year, dd_t, d_t
date (1): day

ℹ Use `spec()` to retrieve the full column specification for this data.
ℹ Specify the column types or set `show_col_types = FALSE` to quiet this message.

Code

df_ts3

# A tibble: 1,009 × 5
    year day        day_noy  dd_t   d_t
   <dbl> <date>     <chr>   <dbl> <dbl>
 1  2023 2023-01-01 0-01-01  2.80  2.68
 2  2023 2023-01-02 0-01-02  2.86  1.72
 3  2023 2023-01-03 0-01-03  2.92  3.75
 4  2023 2023-01-04 0-01-04  2.98  3.79
 5  2023 2023-01-05 0-01-05  3.03  4.82
 6  2023 2023-01-06 0-01-06  3.08  1.85
 7  2023 2023-01-07 0-01-07  3.13  2.88
 8  2023 2023-01-08 0-01-08  3.17  2.90
 9  2023 2023-01-09 0-01-09  3.22  2.93
10  2023 2023-01-10 0-01-10  3.25  1.95
# ℹ 999 more rows
…
Code

df_param_ades_1

# A tibble: 121 × 16
   alpha  beta   phi horizon   mae mae_d  mape mape_d medape medape_d  wape
   <dbl> <dbl> <dbl>   <dbl> <dbl> <dbl> <dbl>  <dbl>  <dbl>    <dbl> <dbl>
 1     0   0       1       1  489.  1.28 9989.   25.9  9989.     25.9 8516.
 2     0   0.1     1       1  489.  1.28 9989.   25.9  9989.     25.9 8516.
 3     0   0.2     1       1  489.  1.28 9989.   25.9  9989.     25.9 8516.
 4     0   0.3     1       1  489.  1.28 9989.   25.9  9989.     25.9 8516.
 5     0   0.4     1       1  489.  1.28 9989.   25.9  9989.     25.9 8516.
 6     0   0.5     1       1  489.  1.28 9989.   25.9  9989.     25.9 8516.
 7     0   0.6     1       1  489.  1.28 9989.   25.9  9989.     25.9 8516.
 8     0   0.7     1       1  489.  1.28 9989.   25.9  9989.     25.9 8516.
 9     0   0.8     1       1  489.  1.28 9989.   25.9  9989.     25.9 8516.
10     0   0.9     1       1  489.  1.28 9989.   25.9  9989.     25.9 8516.
# ℹ 111 more rows
# ℹ 5 more variables: wape_d <dbl>, mase <dbl>, mase_d <dbl>, seamase <dbl>,
#   seamase_d <dbl>
…
Code

df_param_mdes_1

# A tibble: 121 × 16
   alpha  beta   phi horizon   mae mae_d  mape mape_d medape medape_d  wape
   <dbl> <dbl> <dbl>   <dbl> <dbl> <dbl> <dbl>  <dbl>  <dbl>    <dbl> <dbl>
 1     0   0       1       1  5.74  1.28  100.   25.9   100.     25.9  100.
 2     0   0.1     1       1  5.74  1.28  100.   25.9   100.     25.9  100.
 3     0   0.2     1       1  5.74  1.28  100.   25.9   100.     25.9  100.
 4     0   0.3     1       1  5.74  1.28  100.   25.9   100.     25.9  100.
 5     0   0.4     1       1  5.74  1.28  100.   25.9   100.     25.9  100.
 6     0   0.5     1       1  5.74  1.28  100.   25.9   100.     25.9  100.
 7     0   0.6     1       1  5.74  1.28  100.   25.9   100.     25.9  100.
 8     0   0.7     1       1  5.74  1.28  100.   25.9   100.     25.9  100.
 9     0   0.8     1       1  5.74  1.28  100.   25.9   100.     25.9  100.
10     0   0.9     1       1  5.74  1.28  100.   25.9   100.     25.9  100.
# ℹ 111 more rows
# ℹ 5 more variables: wape_d <dbl>, mase <dbl>, mase_d <dbl>, seamase <dbl>,
#   seamase_d <dbl>
…
Code

df_param_addes_2

# A tibble: 363 × 16
   alpha  beta   phi horizon    mae mae_d    mape mape_d  medape medape_d   wape
   <dbl> <dbl> <dbl>   <dbl>  <dbl> <dbl>   <dbl>  <dbl>   <dbl>    <dbl>  <dbl>
 1     0   0     0.5       7   4.03  1.28    62.7   25.9    62.7     25.9   70.2
 2     0   0     0.8       7   6.91  1.28   126.    25.9   126.      25.9  120. 
 3     0   0     1         7 494.    1.28 10116.    25.9 10116.      25.9 8616. 
 4     0   0.1   0.5       7   4.03  1.28    62.7   25.9    62.7     25.9   70.2
 5     0   0.1   0.8       7   6.91  1.28   126.    25.9   126.      25.9  120. 
 6     0   0.1   1         7 494.    1.28 10116.    25.9 10116.      25.9 8616. 
 7     0   0.2   0.5       7   4.03  1.28    62.7   25.9    62.7     25.9   70.2
 8     0   0.2   0.8       7   6.91  1.28   126.    25.9   126.      25.9  120. 
 9     0   0.2   1         7 494.    1.28 10116.    25.9 10116.      25.9 8616. 
10     0   0.3   0.5       7   4.03  1.28    62.7   25.9    62.7     25.9   70.2
# ℹ 353 more rows
# ℹ 5 more variables: wape_d <dbl>, mase <dbl>, mase_d <dbl>, seamase <dbl>,
#   seamase_d <dbl>
…
Code

df_param_ades_3

# A tibble: 121 × 16
   alpha  beta   phi horizon   mae mae_d  mape mape_d medape medape_d  wape
   <dbl> <dbl> <dbl>   <dbl> <dbl> <dbl> <dbl>  <dbl>  <dbl>    <dbl> <dbl>
 1     0   0       1       1  3.15  1.28  46.3   25.9   46.3     25.9  55.0
 2     0   0.1     1       1  3.15  1.28  46.3   25.9   46.3     25.9  55.0
 3     0   0.2     1       1  3.15  1.28  46.3   25.9   46.3     25.9  55.0
 4     0   0.3     1       1  3.15  1.28  46.3   25.9   46.3     25.9  55.0
 5     0   0.4     1       1  3.15  1.28  46.3   25.9   46.3     25.9  55.0
 6     0   0.5     1       1  3.15  1.28  46.3   25.9   46.3     25.9  55.0
 7     0   0.6     1       1  3.15  1.28  46.3   25.9   46.3     25.9  55.0
 8     0   0.7     1       1  3.15  1.28  46.3   25.9   46.3     25.9  55.0
 9     0   0.8     1       1  3.15  1.28  46.3   25.9   46.3     25.9  55.0
10     0   0.9     1       1  3.15  1.28  46.3   25.9   46.3     25.9  55.0
# ℹ 111 more rows
# ℹ 5 more variables: wape_d <dbl>, mase <dbl>, mase_d <dbl>, seamase <dbl>,
#   seamase_d <dbl>
…
Code

df_param_ates

# A tibble: 1,331 × 17
   alpha  beta gamma   phi horizon   mae mae_d   mape mape_d medape medape_d
   <dbl> <dbl> <dbl> <dbl>   <dbl> <dbl> <dbl>  <dbl>  <dbl>  <dbl>    <dbl>
 1     0     0   0       1       1  879.  1.26 17350.   25.2 17350.     25.2
 2     0     0   0.1     1       1  863.  1.26 17036.   25.2 17036.     25.2
 3     0     0   0.2     1       1  846.  1.26 16723.   25.2 16723.     25.2
 4     0     0   0.3     1       1  830.  1.26 16409.   25.2 16409.     25.2
 5     0     0   0.4     1       1  813.  1.26 16095.   25.2 16095.     25.2
 6     0     0   0.5     1       1  796.  1.26 15782.   25.2 15782.     25.2
 7     0     0   0.6     1       1  780.  1.26 15468.   25.2 15468.     25.2
 8     0     0   0.7     1       1  763.  1.26 15154.   25.2 15154.     25.2
 9     0     0   0.8     1       1  747.  1.26 14841.   25.2 14841.     25.2
10     0     0   0.9     1       1  730.  1.26 14527.   25.2 14527.     25.2
# ℹ 1,321 more rows
# ℹ 6 more variables: wape <dbl>, wape_d <dbl>, mase <dbl>, mase_d <dbl>,
#   seamase <dbl>, seamase_d <dbl>
…
Code

df_param_mtes

# A tibble: 1,331 × 17
   alpha  beta gamma   phi horizon   mae mae_d  mape mape_d medape medape_d
   <dbl> <dbl> <dbl> <dbl>   <dbl> <dbl> <dbl> <dbl>  <dbl>  <dbl>    <dbl>
 1     0     0   0       1       1  452.  1.26 8550.   25.2  8550.     25.2
 2     0     0   0.1     1       1  425.  1.26 8021.   25.2  8021.     25.2
 3     0     0   0.2     1       1  398.  1.26 7491.   25.2  7491.     25.2
 4     0     0   0.3     1       1  372.  1.26 6962.   25.2  6962.     25.2
 5     0     0   0.4     1       1  345.  1.26 6433.   25.2  6433.     25.2
 6     0     0   0.5     1       1  319.  1.26 5904.   25.2  5904.     25.2
 7     0     0   0.6     1       1  292.  1.26 5375.   25.2  5375.     25.2
 8     0     0   0.7     1       1  265.  1.26 4846.   25.2  4846.     25.2
 9     0     0   0.8     1       1  239.  1.26 4317.   25.2  4317.     25.2
10     0     0   0.9     1       1  212.  1.26 3788.   25.2  3788.     25.2
# ℹ 1,321 more rows
# ℹ 6 more variables: wape <dbl>, wape_d <dbl>, mase <dbl>, mase_d <dbl>,
#   seamase <dbl>, seamase_d <dbl>
…
Code

df_param_ates_b0

# A tibble: 1,331 × 17
   alpha  beta gamma   phi horizon   mae mae_d  mape mape_d medape medape_d
   <dbl> <dbl> <dbl> <dbl>   <dbl> <dbl> <dbl> <dbl>  <dbl>  <dbl>    <dbl>
 1     0     0   0       1       1  3.94  1.26  69.4   25.2   69.4     25.2
 2     0     0   0.1     1       1  3.80  1.26  66.8   25.2   66.8     25.2
 3     0     0   0.2     1       1  3.66  1.26  64.2   25.2   64.2     25.2
 4     0     0   0.3     1       1  3.53  1.26  61.8   25.2   61.8     25.2
 5     0     0   0.4     1       1  3.41  1.26  59.7   25.2   59.7     25.2
 6     0     0   0.5     1       1  3.31  1.26  58.1   25.2   58.1     25.2
 7     0     0   0.6     1       1  3.22  1.26  56.9   25.2   56.9     25.2
 8     0     0   0.7     1       1  3.16  1.26  56.1   25.2   56.1     25.2
 9     0     0   0.8     1       1  3.12  1.26  55.8   25.2   55.8     25.2
10     0     0   0.9     1       1  3.10  1.26  56.0   25.2   56.0     25.2
# ℹ 1,321 more rows
# ℹ 6 more variables: wape <dbl>, wape_d <dbl>, mase <dbl>, mase_d <dbl>,
#   seamase <dbl>, seamase_d <dbl>
…
Code

df_param_mtes_b0

# A tibble: 1,331 × 17
   alpha  beta gamma   phi horizon   mae mae_d  mape mape_d medape medape_d
   <dbl> <dbl> <dbl> <dbl>   <dbl> <dbl> <dbl> <dbl>  <dbl>  <dbl>    <dbl>
 1     0     0   0       1       1  3.37  1.26  53.7   25.2   53.7     25.2
 2     0     0   0.1     1       1  3.25  1.26  51.6   25.2   51.6     25.2
 3     0     0   0.2     1       1  3.13  1.26  49.6   25.2   49.6     25.2
 4     0     0   0.3     1       1  3.03  1.26  48.0   25.2   48.0     25.2
 5     0     0   0.4     1       1  2.94  1.26  46.6   25.2   46.6     25.2
 6     0     0   0.5     1       1  2.87  1.26  45.7   25.2   45.7     25.2
 7     0     0   0.6     1       1  2.82  1.26  45.3   25.2   45.3     25.2
 8     0     0   0.7     1       1  2.79  1.26  45.2   25.2   45.2     25.2
 9     0     0   0.8     1       1  2.77  1.26  45.5   25.2   45.5     25.2
10     0     0   0.9     1       1  2.78  1.26  46.0   25.2   46.0     25.2
# ℹ 1,321 more rows
# ℹ 6 more variables: wape <dbl>, wape_d <dbl>, mase <dbl>, mase_d <dbl>,
#   seamase <dbl>, seamase_d <dbl>
…
Code

df_param_addes_3

# A tibble: 3,993 × 17
   alpha  beta gamma   phi horizon    mae mae_d    mape mape_d  medape medape_d
   <dbl> <dbl> <dbl> <dbl>   <dbl>  <dbl> <dbl>   <dbl>  <dbl>   <dbl>    <dbl>
 1     0     0   0     0.5       7   2.77  1.26    50.0   25.2    50.0     25.2
 2     0     0   0     0.8       7   7.72  1.26   180.    25.2   180.      25.2
 3     0     0   0     1         7 896.    1.26 17703.    25.2 17703.      25.2
 4     0     0   0.1   0.5       7   2.72  1.26    49.1   25.2    49.1     25.2
 5     0     0   0.1   0.8       7   7.42  1.26   174.    25.2   174.      25.2
 6     0     0   0.1   1         7 878.    1.26 17375.    25.2 17375.      25.2
 7     0     0   0.2   0.5       7   2.67  1.26    48.4   25.2    48.4     25.2
 8     0     0   0.2   0.8       7   7.13  1.26   167.    25.2   167.      25.2
 9     0     0   0.2   1         7 861.    1.26 17047.    25.2 17047.      25.2
10     0     0   0.3   0.5       7   2.64  1.26    47.9   25.2    47.9     25.2
# ℹ 3,983 more rows
# ℹ 6 more variables: wape <dbl>, wape_d <dbl>, mase <dbl>, mase_d <dbl>,
#   seamase <dbl>, seamase_d <dbl>
…
